{
  "version": "1.2.0-*",
  "description": "ASP.NET Core HTTP server that uses the Windows HTTP Server API.",
  "packOptions": {
    "tags": [
      "aspnetcore",
      "weblistener",
      "httpsys"
    ]
  },
  "dependencies": {
    // "System.Threading.Tasks": "4.3.0"
    "Microsoft.AspNetCore.Hosting": "1.2.0-*",
    "Microsoft.Extensions.TaskCache.Sources": {
      "version": "1.2.0-*",
      "type": "build"
    },
    "Microsoft.Net.Http.Headers": "1.2.0-*",
    "NETStandard.Library": "1.6.2-*"

  },
  "buildOptions": {
    "allowUnsafe": true,
    "warningsAsErrors": true,
    "keyFile": "../../tools/Key.snk",
    "nowarn": [
      "CS1591"
    ],
    "xmlDoc": true
  },
  "frameworks": {
    "net451": {
      "dependencies": {
        // "System.Threading.Tasks": "4.0.11.0"
        // "System.Threading.Tasks": "4.4.0-*"
      }
    },
    "netstandard1.3": {
      "dependencies": {
        "System.Threading.Tasks": "4.4.0-beta-24913-02",
        "Microsoft.Extensions.RuntimeEnvironment.Sources": {
          "type": "build",
          "version": "1.2.0-*"
        },
        "System.Diagnostics.Contracts": "4.4.0-*",
        "System.Net.WebSockets": "4.4.0-*",
        "System.Security.Claims": "4.4.0-*",
        "System.Security.Principal.Windows": "4.4.0-*",
        "System.Threading.Overlapped": "4.4.0-*"
      }
    }
  }
}